%YAML 1.1
%TAG !u! tag:unity3d.com,2011:
--- !u!114 &11400000
MonoBehaviour:
  m_ObjectHideFlags: 0
  m_CorrespondingSourceObject: {fileID: 0}
  m_PrefabInstance: {fileID: 0}
  m_PrefabAsset: {fileID: 0}
  m_GameObject: {fileID: 0}
  m_Enabled: 1
  m_EditorHideFlags: 0
  m_Script: {fileID: 11500000, guid: 0e9176d53995eae499ff19f3a410a612, type: 3}
  m_Name: Square
  m_EditorClassIdentifier: 
  itemName: Square
  icon: {fileID: 10905, guid: 0000000000000000f000000000000000, type: 0}
  description: I Am a Square
  stackable: 1
  stackSize: 99
