{
    "name": "InventorySystemPlaytests",
    "references": [
        "GUID:bc09d7deff96e1245a3dbbca2154db37"
    ],
    "optionalUnityReferences": [
        "TestAssemblies"
    ],
    "includePlatforms": [],
    "excludePlatforms": [],
    "allowUnsafeCode": false,
    "overrideReferences": false,
    "precompiledReferences": [],
    "autoReferenced": true,
    "defineConstraints": [],
    "versionDefines": []
}